habraspring/WebSecurityConfiguration.class
habraspring/model/Data.class
habraspring/repository/UserRepository.class
habraspring/controller/UserRestController.class
habraspring/model/User.class
habraspring/Application.class
habraspring/exception/UserNotFoundException.class
habraspring/component/UserCommandLineRunner.class
habraspring/WebSecurityConfig.class
